Esportazioni di prodotti italiani nel mondo
…
partner_name_model <- function(df) {
  lm((as.numeric(sub(",", ".", Export, fixed = TRUE))) ~ (as.numeric(Year)), data = df)
}

Con mutate (dplyr) viene creata una nuova variabile
mentre con map (purrr) si applica
by_partner_name ad ogni elemento.

by_partner_name <- by_partner_name %>% 
  mutate(model = map(data, partner_name_model))
by_partner_name

## # A tibble: 245 x 3
## # Groups:   Partner.Name [245]
##    Partner.Name        data              model 
##    <chr>               <list>            <list>
##  1 Afghanistan         <tibble [26 x 4]> <lm>  
##  2 Albania             <tibble [26 x 4]> <lm>  
##  3 Algeria             <tibble [26 x 4]> <lm>  
##  4 American Samoa      <tibble [26 x 4]> <lm>  
##  5 Andorra             <tibble [26 x 4]> <lm>  
##  6 Angola              <tibble [26 x 4]> <lm>  
##  7 Anguila             <tibble [26 x 4]> <lm>  
##  8 Antarctica          <tibble [26 x 4]> <lm>  
##  9 Antigua and Barbuda <tibble [26 x 4]> <lm>  
## 10 Argentina           <tibble [26 x 4]> <lm>  
## # ... with 235 more rows

#by_partner_name$model[[1]]

Ora per calcolare i residui di ogni Paese si utilizza
add_residual (modelr) e map2
(purrr).

by_partner_name <- by_partner_name %>%
  mutate(data = map2(data, model, add_residuals))
by_partner_name

## # A tibble: 245 x 3
## # Groups:   Partner.Name [245]
##    Partner.Name        data              model 
##    <chr>               <list>            <list>
##  1 Afghanistan         <tibble [26 x 5]> <lm>  
##  2 Albania             <tibble [26 x 5]> <lm>  
##  3 Algeria             <tibble [26 x 5]> <lm>  
##  4 American Samoa      <tibble [26 x 5]> <lm>  
##  5 Andorra             <tibble [26 x 5]> <lm>  
##  6 Angola              <tibble [26 x 5]> <lm>  
##  7 Anguila             <tibble [26 x 5]> <lm>  
##  8 Antarctica          <tibble [26 x 5]> <lm>  
##  9 Antigua and Barbuda <tibble [26 x 5]> <lm>  
## 10 Argentina           <tibble [26 x 5]> <lm>  
## # ... with 235 more rows

#by_partner_name$data[[1]]

(resids = unnest(by_partner_name, data))

## # A tibble: 6,370 x 7
## # Groups:   Partner.Name [245]
##    Partner.Name Reporter.Name Product.Group    Year  Export     resid model 
##    <chr>        <chr>         <chr>            <chr> <chr>      <dbl> <list>
##  1 Afghanistan  Italy         "  All Products" 1994  1835,093  -3123. <lm>  
##  2 Afghanistan  Italy         "  All Products" 1995  1659,508  -4200. <lm>  
##  3 Afghanistan  Italy         "  All Products" 1996  2790,5    -3971. <lm>  
##  4 Afghanistan  Italy         "  All Products" 1997  1152,369  -6511. <lm>  
##  5 Afghanistan  Italy         "  All Products" 1998  914,189   -7651. <lm>  
##  6 Afghanistan  Italy         "  All Products" 1999  1164,722  -8303. <lm>  
##  7 Afghanistan  Italy         "  All Products" 2000  1053,252  -9316. <lm>  
##  8 Afghanistan  Italy         "  All Products" 2001  1332,487  -9939. <lm>  
##  9 Afghanistan  Italy         "  All Products" 2002  7327,681  -4845. <lm>  
## 10 Afghanistan  Italy         "  All Products" 2003  19757,218  6682. <lm>  
## # ... with 6,360 more rows
…
